{
    "fetchTranscriptions": {
      "title": "Fetch Transcriptions & Summary",
      "description": "This API lets you fetch details of all your transcriptions of room by passing roomId or sessionId. Optionally, if you don't specify a roomid , you will fetch all the transcriptions of all your rooms.",
      "headers": [
        {
          "key": "Authorization",
          "value": "$YOUR_TOKEN"
        },
        {
          "key": "Content-Type",
          "value": "application/json"
        }
      ],
      "methodType": "GET",
      "postParameters": [],
      "queryParameters": [
        {
          "key": "roomId",
          "value": "xyz",
          "description": "#### The ID of the Room.",
          "required": false
        },
        {
          "key": "sessionId",
          "value": "621497578bea0d0404c35c4c",
          "description": "#### The ID of the Session.",
          "required": false
        },
        {
          "key": "page",
          "defaultValue": "`1`",
          "value": "1",
          "description": "#### Page number for the transcriptions.",
          "required": false
        },
        {
          "key": "perPage",
          "defaultValue": "`20`",
          "value": "20",
          "description": "#### Number of transcriptions you want per page.",
          "required": false
        }
      ],
      "parameters": [],
      "apiEndpoint": "https://api.videosdk.live/v2/transcriptions/",
      "response": {
        "pageInfo": {
          "currentPage": 1,
          "perPage": 2,
          "lastPage": 5,
          "total": 10
        },
        "transcriptions": [
          {
              "id": "40b0a4ed-9842-40c9-a288-e4b1bf98a90a",
              "status": "completed",
              "roomId": "abc-xyzw-lmno",
              "sessionId": "621497578bea0d0404c35c4c",
              "recordingId": "65d303d6d2c373dfd71b38a2",
              "filePath": "https://cdn.videosdk.live/encoded/videos/dummy.mp4",
              "transcriptionFilePaths": {
                  "json": "https://cdn.videosdk.live/transcriptions/dummy/dummy.json",
                  "srt": "https://cdn.videosdk.live/transcriptions/dummy/dummy.srt",
                  "txt": "https://cdn.videosdk.live/transcriptions/dummy/dummy.txt",
                  "tsv": "https://cdn.videosdk.live/transcriptions/dummy/dummy.tsv",
                  "vtt": "https://cdn.videosdk.live/transcriptions/dummy/dummy.vtt"
              },
              "summarizedFilePaths": {
                  "txt": "https://cdn.videosdk.live/transcriptions/dummy/dummy-summary.txt"
              },
              "userStorage": null,
              "start": "2024-02-27T16:00:36.828Z",
              "end": "2024-02-27T16:01:46.939Z"
          }
      ]
      }
    }
  }