{
  "fetchAllLivestream": {
    "title": "Fetch all Livestreams",
    "description": "This API let you fetch all your Livestreams.",
    "headers": [],
    "methodType": "GET",
    "postParameters": [],
    "queryParameters": [
      {
        "key": "page",
        "defaultValue": "`1`",
        "description": "#### Page number for the livestreams.",
        "required": false
      },
      {
        "key": "perPage",
        "defaultValue": "`20`",
        "description": "#### Number of livestreams you want per page.",
        "required": false
      }
    ],
    "parameters": [],
    "apiEndpoint": "https://api.videosdk.live/v2/livestreams/",
    "response": {
      "pageInfo": {
        "currentPage": 1,
        "perPage": 20,
        "lastPage": 2,
        "total": 25
      },
      "data": [
        {
          "record": true,
          "_id": "6543245b1234abcdefghddcc",
          "userId": "5xyzw1098765abcdlmnopqrs",
          "name": "My Livestream",
          "streamKey": "abcdefgh-ijklm-1234-5678-abcdefghi",
          "upstreamUrl": "rtmp://live.videosdk.live/live/abcdefgh-ijklm-1234-5678-abcdefghi",
          "downstreamUrl": "https://live.videosdk.live/live/abcdefgh-ijklm-1234-5678-abcdefghi/index.m3u8",
          "recordingUrl": "https://cdn.videosdk.live/encoded/videos/abcdefgh-ijklm-1234-5678-abcdefghi/index.m3u8",
          "restream": [],
          "createdAt": "2022-03-23T10:20:11.936Z",
          "updatedAt": "2022-03-23T10:20:11.936Z",
          "user": {
            "email": "hello@zujo.io",
            "name": "Zujonow",
            "discontinuedReason": null,
            "id": "5xyzw1098765abcdlmnopqrs"
          },
          "streamUrl": "rtmp://live.videosdk.live/live/",
          "id": "6543245b1234abcdefghddcc"
        }
      ]
    }
  }
}
