{
  "fetchParticipants": {
    "description": "The number of participants in a session can be fetched by calling this API. You need to pass sessionId as a parameter for which you need the details. It will include both active as well as inactive participants in the session.",
    "headers": [],
    "methodType": "GET",
    "postParameters": [],
    "queryParameters": [
      {
        "key": "page",
        "value": "1",
        "description": "Page number for the sessions",
        "required": false
      },
      {
        "key": "perPage",
        "value": "10",
        "description": "Number of Participants you want per page",
        "required": false
      }
    ],
    "parameters": [
      {
        "key": "sessionId",
        "value": "sessionId",
        "required": true
      }
    ],
    "apiEndpoint": "https://api.videosdk.live/v2/sessions/${sessionId}/participants",
    "response": {
      "pageInfo": {
        "currentPage": 1,
        "perPage": 2,
        "lastPage": 5,
        "total": 10
      },
      "data": {
        "id": "61763c2597b0c743cf454204",
        "roomId": "abc-xyzw-lmno",
        "customRoomId": "testing-room",
        "participants": [
          {
            "participantId": "a1pu7evl",
            "name": "Demo-1",
            "timelog": [
              {
                "start": "2021-10-25T05:09:58.934Z",
                "end": "2021-10-25T05:28:45.002Z"
              }
            ]
          },
          {
            "participantId": "x2hwiee0",
            "name": "Demo-2",
            "timelog": [
              {
                "start": "2021-10-25T05:10:22.905Z",
                "end": "2021-10-25T05:28:45.430Z"
              }
            ]
          },
          {
            "participantId": "ylgjhgeh",
            "name": "Demo-3",
            "timelog": [
              {
                "start": "2021-10-25T05:10:30.129Z",
                "end": null
              }
            ]
          },
          {
            "participantId": "jkkyiiqo",
            "name": "Demo-4",
            "timelog": [
              {
                "start": "2021-10-25T05:10:36.354Z",
                "end": "2021-10-25T05:28:45.638Z"
              }
            ]
          },
          {
            "participantId": "x9mwdb2l",
            "name": "Demo-5",
            "timelog": [
              {
                "start": "2021-10-25T05:10:41.865Z",
                "end": null
              }
            ]
          }
        ],
        "links": {
          "get_room": "https://api.videosdk.live/v2/rooms/abc-xyzw-lmno",
          "get_session": "https://api.videosdk.live/v2/sessions/"
        }
      }
    }
  }
}
