{
  "fetchRoom": {
    "description": "Fetch all your rooms or you can fetch a particular room information by passing roomId as parameter.",
    "headers": [],
    "methodType": "GET",
    "postParameters": [],
    "queryParameters": [],
    "parameters": [
      {
        "key": "roomId",
        "description": "The roomId you want to fetch information.",
        "required": false
      }
    ],
    "apiEndpoint": "https://api.videosdk.live/v2/rooms/${roomId}",
    "response": {
      "pageInfo": {
        "currentPage": 1,
        "perPage": 2,
        "lastPage": 5,
        "total": 10
      },
      "data": [
        {
          "roomId": "abcd-efgh-lmno",
          "customRoomId": "final-testing",
          "region": "us001",
          "createdAt": "2022-03-25T04:19:32.380Z",
          "updatedAt": "2022-03-25T04:19:32.380Z",
          "user": {
            "email": "tech@zujo.io",
            "name": "Zujonow",
            "discontinuedReason": null,
            "id": "5f7edbb14c938bcd42944527"
          },
          "id": "623d42d472498060cccb51f2",
          "links": {
            "get_room": "https://api.videosdk.live/v2/rooms/abc-xyzw-lmno",
            "get_session": "https://api.videosdk.live/v2/sessions/"
          }
        }
      ]
    }
  }
}
